b25.jpg
6.397600e+01 6.632000e+00 1.213200e+02 6.090400e+01
1.371920e+02 1 2.564880e+02 2.564880e+02
1 7.524000e+01 1.714960e+02 1.525520e+02
1 1 2.564880e+02 2.564880e+02
1 7.421600e+01 3.479200e+01 1.259280e+02
1.584800e+01 1 4.042400e+01 5.885600e+01
1 1 2.088720e+02 2.564880e+02
1.612560e+02 1 2.564880e+02 2.564880e+02
9.981600e+01 1 2.564880e+02 2.564880e+02
1 1.003280e+02 2.199200e+01 1.300240e+02
1.443600e+02 1.592080e+02 2.032400e+02 2.339600e+02
1 1.202960e+02 2.564880e+02 2.564880e+02
1 1 4.759200e+01 1.300240e+02
6.551200e+01 1 1.453840e+02 6.858400e+01
3.888800e+01 1 1.919760e+02 9.316000e+01
3.632800e+01 7.165600e+01 1.714960e+02 1.525520e+02
1 1 2.047760e+02 1.494800e+02
6.448800e+01 1 1.392400e+02 6.653600e+01
1 1.243920e+02 2.564880e+02 2.564880e+02
1.781520e+02 1.361680e+02 2.037520e+02 1.597200e+02
1 1 2.564880e+02 2.380560e+02
9.704000e+00 1.919760e+02 1.955600e+02 2.564880e+02
1 1.192720e+02 1.633040e+02 1.842960e+02
7.882400e+01 3.560000e+00 1.274640e+02 4.400800e+01
2.096800e+01 1 1.919760e+02 1.085200e+02
1 1.218320e+02 1.663760e+02 2.375440e+02
1 7.421600e+01 1.627920e+02 2.365200e+02
4.247200e+01 7.933600e+01 1.330960e+02 1.172240e+02
2.006800e+02 1 2.564880e+02 2.349840e+02
1.382160e+02 1.592080e+02 2.037520e+02 2.314000e+02
1 1 6.602400e+01 1.315600e+02
1 1 2.088720e+02 1.817360e+02
1 1 2.093840e+02 1.561360e+02
9.316000e+01 8.036000e+01 2.052880e+02 1.771280e+02
3.684000e+01 1 2.564880e+02 2.564880e+02
1.965840e+02 1 2.564880e+02 2.380560e+02
2.119440e+02 1 2.564880e+02 2.329360e+02
4.072000e+00 1.704720e+02 193 2.564880e+02
4.452000e+01 1 7.319200e+01 6.858400e+01
1.428240e+02 1.213200e+02 1.627920e+02 1.484560e+02
1 1 2.088720e+02 1.228560e+02
1 7.421600e+01 1.392400e+02 2.365200e+02
1.392400e+02 1 2.564880e+02 2.564880e+02
1 1 1.714960e+02 1.525520e+02
3.786400e+01 1.894160e+02 1.970960e+02 2.370320e+02
3.632800e+01 7.370400e+01 2.052880e+02 1.633040e+02
1.371920e+02 1.581840e+02 2.508560e+02 2.564880e+02
1.124000e+01 1.904400e+02 1.453840e+02 2.365200e+02
7.114400e+01 2.711200e+01 1.249040e+02 5.629600e+01
1.433360e+02 1.597200e+02 2.017040e+02 2.365200e+02
3.632800e+01 1 2.564880e+02 2.564880e+02
1.131280e+02 8.906400e+01 1.346320e+02 1.172240e+02
1 6.807200e+01 2.047760e+02 1.817360e+02
3.376800e+01 2.186000e+02 1.336080e+02 2.513680e+02
6.551200e+01 1 1.418000e+02 6.960800e+01
4.349600e+01 7.933600e+01 1.325840e+02 1.105680e+02
1.994400e+01 1.924880e+02 7.421600e+01 2.119440e+02
1 8.036000e+01 1.827600e+02 1.546000e+02
1.044240e+02 1.592080e+02 1.448720e+02 1.812240e+02
1.725200e+02 7.984800e+01 2.022160e+02 1.295120e+02
1.428240e+02 1.423120e+02 193 1.627920e+02
9.008800e+01 1.218320e+02 1.633040e+02 1.827600e+02
1 1 1.919760e+02 1.453840e+02
1.371920e+02 1.581840e+02 2.032400e+02 2.365200e+02
1 7.165600e+01 1.714960e+02 2.375440e+02
1 1.095440e+02 1.602320e+02 1.494800e+02
1 1 2.088720e+02 1.238800e+02
2.088720e+02 1.356560e+02 2.457360e+02 2.206480e+02
1 7.370400e+01 2.052880e+02 2.564880e+02
7.831200e+01 3.048000e+00 1.213200e+02 4.810400e+01
1.960720e+02 1 2.564880e+02 2.452240e+02
1 1 2.088720e+02 1.551120e+02
1 1.428240e+02 2.411280e+02 2.564880e+02
1 1.551120e+02 2.416400e+02 2.564880e+02
1 1.540880e+02 8.292000e+01 2.564880e+02
1 1.551120e+02 2.037520e+02 2.564880e+02
3.735200e+01 1 2.088720e+02 1.551120e+02
1 1 5.117600e+01 1.300240e+02
2.119440e+02 1 2.564880e+02 1.546000e+02
3.632800e+01 7.370400e+01 1.950480e+02 1.525520e+02
6.551200e+01 1 1.453840e+02 6.960800e+01
1 1.192720e+02 1.633040e+02 2.370320e+02
6.120000e+00 2.237200e+02 2.916000e+01 2.564880e+02
1 1.428240e+02 1.208080e+02 1.909520e+02
1.202960e+02 1.090320e+02 2.052880e+02 2.365200e+02
7.114400e+01 1 1.356560e+02 6.192800e+01
2.006800e+02 1 2.534160e+02 2.283280e+02
1.072800e+01 1.380000e+01 5.117600e+01 8.138400e+01
1.482400e+01 1 4.349600e+01 6.039200e+01
4.452000e+01 1 1.418000e+02 7.165600e+01
9.192000e+00 2.175760e+02 1.909520e+02 2.564880e+02
3.888800e+01 7.216800e+01 1.853200e+02 9.316000e+01
2.119440e+02 7.656000e+00 2.564880e+02 1.412880e+02
1 1.540880e+02 193 2.564880e+02
2.404000e+01 1 2.047760e+02 1.054480e+02
1.482400e+01 1 4.042400e+01 5.885600e+01
6.448800e+01 1 1.080080e+02 5.476000e+01
1 7.421600e+01 193 2.564880e+02
3.632800e+01 7.370400e+01 2.052880e+02 2.365200e+02
1 1.428240e+02 1.423120e+02 2.564880e+02
1.428240e+02 1.167120e+02 193 1.627920e+02
1 1 2.047760e+02 1.525520e+02
1.371920e+02 4.452000e+01 2.564880e+02 2.564880e+02
6.551200e+01 1 1.346320e+02 5.578400e+01
4.452000e+01 1 1.535760e+02 7.165600e+01
1.482400e+01 1.592080e+02 2.032400e+02 2.380560e+02
2.096800e+01 1 2.063120e+02 1.192720e+02
9.192000e+00 2.175760e+02 1.208080e+02 2.564880e+02
2.145040e+02 1 2.564880e+02 3.069600e+01
2.196240e+02 2.199200e+01 2.493200e+02 1.162000e+02
1.789600e+01 1 3.837600e+01 5.476000e+01
4.554400e+01 8.138400e+01 1.709840e+02 1.090320e+02
1 1 2.109200e+02 2.375440e+02
1 1 3.120800e+01 1.223440e+02
6.807200e+01 1 1.428240e+02 6.704800e+01
65 1.090320e+02 2.052880e+02 2.365200e+02
2.119440e+02 1 2.564880e+02 1.433360e+02
3.786400e+01 2.006800e+02 1.202960e+02 2.242320e+02
2.404000e+01 5.322400e+01 1.776400e+02 8.036000e+01
1.366800e+02 1.177360e+02 1.638160e+02 1.525520e+02
6.448800e+01 8.680000e+00 1.249040e+02 4.861600e+01
1 7.165600e+01 2.037520e+02 2.564880e+02
1.069840e+02 2.139920e+02 1.909520e+02 2.339600e+02
4.072000e+00 2.047760e+02 1.407760e+02 2.564880e+02
5.608000e+00 1 4.503200e+01 7.216800e+01
1.730320e+02 1.431200e+01 2.022160e+02 9.520800e+01
7.114400e+01 1 1.356560e+02 5.578400e+01
2.073360e+02 1.274640e+02 2.564880e+02 2.457360e+02
1 1.095440e+02 1.566480e+02 1.448720e+02
7.626400e+01 1.226400e+01 1.080080e+02 3.274400e+01
1 8.036000e+01 1.418000e+02 1.546000e+02
2.175760e+02 3.048000e+00 2.564880e+02 3.069600e+01
6.448800e+01 1 1.418000e+02 7.165600e+01
1 1.095440e+02 1.566480e+02 1.453840e+02
1 1 1.776400e+02 1.402640e+02
1 1.218320e+02 1.617680e+02 2.375440e+02
2.096800e+01 1 1.771280e+02 1.085200e+02
1.668880e+02 8.087200e+01 2.032400e+02 1.586960e+02
1.494800e+02 1 2.088720e+02 8.189600e+01
1 1 1.714960e+02 1.453840e+02
1 1.100560e+02 193 2.564880e+02
1 1 4.400800e+01 1.310480e+02
1 1.115920e+02 1.602320e+02 1.494800e+02
9.704000e+00 2.186000e+02 9.264800e+01 2.564880e+02
1.720080e+02 1.044240e+02 2.047760e+02 1.597200e+02
1.044240e+02 8.189600e+01 1.709840e+02 1.095440e+02
3.684000e+01 7.421600e+01 193 1.627920e+02
1 1 5.066400e+01 1.300240e+02
6.704800e+01 8.496800e+01 9.213600e+01 1.110800e+02
9.704000e+00 2.308880e+02 7.933600e+01 2.564880e+02
1.072800e+01 1 2.063120e+02 1.192720e+02
7.728800e+01 1 1.356560e+02 5.476000e+01
9.316000e+01 8.957600e+01 1.377040e+02 1.177360e+02
1.412880e+02 1.622800e+02 2.037520e+02 2.314000e+02
1.438480e+02 1 2.564880e+02 2.452240e+02
5.220000e+01 1 1.008400e+02 6.756000e+01
2.001680e+02 2.104080e+02 2.467600e+02 2.467600e+02
1.039120e+02 8.548000e+01 1.653520e+02 1.233680e+02
1 1 4.759200e+01 1.228560e+02
1 1.023760e+02 2.199200e+01 1.315600e+02
1 1.202960e+02 2.052880e+02 2.564880e+02
7.370400e+01 1.243920e+02 2.017040e+02 2.365200e+02
4.349600e+01 7.933600e+01 6.653600e+01 1.105680e+02
9.111200e+01 1.202960e+02 2.052880e+02 1.945360e+02
4.349600e+01 7.933600e+01 1.330960e+02 1.172240e+02
1.377040e+02 1.197840e+02 1.602320e+02 1.397520e+02
1.494800e+02 1 2.022160e+02 9.367200e+01
4.072000e+00 1.904400e+02 1.909520e+02 2.564880e+02
6.448800e+01 1 1.428240e+02 6.858400e+01
1.755920e+02 2.104080e+02 2.467600e+02 2.498320e+02
4.072000e+00 1.592080e+02 2.037520e+02 2.564880e+02
1.438480e+02 1 2.093840e+02 1.551120e+02
1.533600e+01 1 4.144800e+01 6.039200e+01
2.404000e+01 1 1.848080e+02 9.162400e+01
6.551200e+01 1 1.428240e+02 6.756000e+01
1.371920e+02 1.720080e+02 1.894160e+02 2.247440e+02
7.984800e+01 7.144000e+00 1.259280e+02 4.349600e+01
6.551200e+01 1 1.356560e+02 6.192800e+01
2.006800e+02 4.093600e+01 2.564880e+02 2.564880e+02
9.981600e+01 8.189600e+01 2.052880e+02 2.319120e+02
1.533600e+01 1 4.400800e+01 6.039200e+01
3.684000e+01 7.421600e+01 6.653600e+01 1.121040e+02
1 1 1.418000e+02 1.546000e+02
1.674000e+02 1.202960e+02 2.052880e+02 1.689360e+02
1.023760e+02 1 1.423120e+02 6.295200e+01
1.612560e+02 2.134800e+02 2.564880e+02 2.564880e+02
1 1 4.349600e+01 1.315600e+02
1.965840e+02 1 2.564880e+02 2.564880e+02
2.063120e+02 2.134800e+02 2.564880e+02 2.564880e+02
1 1 4.196000e+01 1.023760e+02
6.448800e+01 4.810400e+01 1.069840e+02 7.063200e+01
9.704000e+00 1.919760e+02 1.965840e+02 2.564880e+02
1 1 2.088720e+02 1.305360e+02
1.738400e+01 1 3.684000e+01 5.424800e+01
1 1.192720e+02 1.965840e+02 2.564880e+02
4.605600e+01 8.138400e+01 1.448720e+02 1.100560e+02
1.842960e+02 1.284880e+02 2.037520e+02 1.556240e+02
8.804000e+01 8.599200e+01 1.156880e+02 1.141520e+02
7.984800e+01 7.144000e+00 1.074960e+02 4.298400e+01
6.397600e+01 1 1.356560e+02 6.192800e+01
1.336080e+02 7.370400e+01 2.047760e+02 1.740560e+02
9.192000e+00 1.904400e+02 1.909520e+02 2.564880e+02
2.506400e+01 1.115920e+02 9.725600e+01 1.377040e+02
3.888800e+01 7.319200e+01 1.714960e+02 1.525520e+02
1.730320e+02 1.431200e+01 2.047760e+02 1.080080e+02
6.632000e+00 1.904400e+02 8.292000e+01 2.385680e+02
4.042400e+01 1 1.356560e+02 7.370400e+01
1 1.535760e+02 9.264800e+01 2.375440e+02
3.940000e+01 2.191120e+02 2.416400e+02 2.564880e+02
1 1.428240e+02 1.428240e+02 2.564880e+02
6.448800e+01 6.632000e+00 1.080080e+02 3.940000e+01
2.088720e+02 1 2.564880e+02 2.329360e+02
1.438480e+02 1 2.093840e+02 9.111200e+01
1 7.370400e+01 2.047760e+02 1.817360e+02
1.789600e+01 1.755920e+02 1.438480e+02 2.252560e+02
2.078480e+02 2.301600e+01 2.564880e+02 2.564880e+02
1.674000e+02 8.036000e+01 2.052880e+02 1.561360e+02
4.349600e+01 7.933600e+01 1.950480e+02 1.520400e+02
1.730320e+02 1.197840e+02 1.981200e+02 1.551120e+02
1.202960e+02 1.489680e+02 2.032400e+02 2.319120e+02
3.632800e+01 7.370400e+01 1.781520e+02 1.136400e+02
1 1 1.853200e+02 1.310480e+02
1.730320e+02 1.044240e+02 2.006800e+02 129
1.202960e+02 1.735440e+02 1.484560e+02 2.093840e+02
1.668880e+02 4.042400e+01 2.083600e+02 1.551120e+02
1.781520e+02 1.351440e+02 2.037520e+02 1.592080e+02
2.404000e+01 5.322400e+01 1.848080e+02 9.162400e+01
9.111200e+01 1.551120e+02 1.443600e+02 1.945360e+02
2.073360e+02 1.274640e+02 2.564880e+02 2.564880e+02
4.554400e+01 8.138400e+01 8.036000e+01 1.085200e+02
3.632800e+01 1.095440e+02 1.515280e+02 1.295120e+02
1 1 4.349600e+01 1.300240e+02
5.117600e+01 8.445600e+01 1.259280e+02 1.121040e+02
4.072000e+00 1.894160e+02 1.970960e+02 2.564880e+02
9.192000e+00 2.093840e+02 2.564880e+02 2.564880e+02
1 1.443600e+02 8.906400e+01 1.842960e+02
2.083600e+02 1.576720e+02 2.564880e+02 2.564880e+02
5.168800e+01 1 7.882400e+01 6.858400e+01
1.482400e+01 9.623200e+01 3.428000e+01 1.259280e+02
3.735200e+01 6.807200e+01 1.709840e+02 1.172240e+02
1 1 1.776400e+02 1.494800e+02
1.151760e+02 1.674000e+02 1.981200e+02 2.360080e+02
1.023760e+02 1 1.653520e+02 7.472800e+01
8.168000e+00 1.380000e+01 3.274400e+01 8.138400e+01
1.458960e+02 8.240800e+01 1.704720e+02 1.295120e+02
1 7.421600e+01 4.656800e+01 1.305360e+02
1.277600e+01 8.292000e+01 3.274400e+01 1.090320e+02
1 7.780000e+01 1.418000e+02 1.546000e+02
2.352800e+01 1.633040e+02 1.428240e+02 2.073360e+02
2.536000e+00 1.380000e+01 3.120800e+01 9.930400e+01
9.704000e+00 2.308880e+02 7.165600e+01 2.564880e+02
1.745680e+02 1.431200e+01 2.027280e+02 8.189600e+01
1.840800e+01 1.786640e+02 7.114400e+01 2.180880e+02
1 1 2.088720e+02 1.300240e+02
1.064720e+02 2.455200e+01 1.346320e+02 5.834400e+01
1 1.243920e+02 2.017040e+02 2.564880e+02
1 1.218320e+02 1.663760e+02 1.842960e+02
4.554400e+01 7.984800e+01 1.346320e+02 1.151760e+02
1.725200e+02 1 2.083600e+02 1.633040e+02
9.981600e+01 1 2.088720e+02 2.319120e+02
1.617680e+02 2.093840e+02 2.564880e+02 2.564880e+02
3.940000e+01 2.201360e+02 1.919760e+02 2.564880e+02
1 1 4.349600e+01 1.259280e+02
2.063120e+02 2.247440e+02 2.503440e+02 2.564880e+02
1.638160e+02 1 2.047760e+02 1.080080e+02
1.955600e+02 1 2.564880e+02 2.564880e+02
1.226400e+01 1.720080e+02 1.894160e+02 2.339600e+02
3.632800e+01 7.370400e+01 1.950480e+02 1.520400e+02
4.503200e+01 7.933600e+01 2.052880e+02 1.633040e+02
9.316000e+01 8.957600e+01 1.638160e+02 1.525520e+02
2.506400e+01 1.115920e+02 1.325840e+02 1.402640e+02
1.136400e+02 1 2.093840e+02 1.561360e+02
2.063120e+02 1.274640e+02 2.564880e+02 2.564880e+02
1 7.472800e+01 2.052880e+02 2.375440e+02
1.392400e+02 1.581840e+02 2.390800e+02 2.564880e+02
3.632800e+01 7.370400e+01 1.709840e+02 1.136400e+02
65 1.249040e+02 1.612560e+02 1.699600e+02
7.882400e+01 3.560000e+00 1.279760e+02 4.400800e+01
1.423120e+02 1 2.564880e+02 2.564880e+02
1.840800e+01 1 3.786400e+01 5.424800e+01
1 7.421600e+01 3.735200e+01 1.300240e+02
1 1 4.196000e+01 1.162000e+02
5.015200e+01 8.343200e+01 8.036000e+01 1.090320e+02
1.458960e+02 1.704720e+02 1.940240e+02 1.924880e+02
2.001680e+02 1 2.564880e+02 2.564880e+02
1.489680e+02 1.679120e+02 1.935120e+02 193
6.397600e+01 1 1.336080e+02 6.192800e+01
1 1 2.109200e+02 1.633040e+02
1 8.036000e+01 3.530400e+01 1.300240e+02
6.551200e+01 1 1.428240e+02 6.704800e+01
9.776800e+01 1.592080e+02 1.448720e+02 1.863440e+02
3.837600e+01 7.472800e+01 1.709840e+02 1.499920e+02
1 1.218320e+02 1.663760e+02 2.191120e+02
2.006800e+02 1 2.334480e+02 2.349840e+02
1.412880e+02 1.899280e+02 1.924880e+02 2.252560e+02
1.648400e+02 1.028880e+02 2.011920e+02 1.602320e+02
6.397600e+01 1 1.080080e+02 5.578400e+01
4.042400e+01 1 1.653520e+02 7.472800e+01
6.653600e+01 1 1.351440e+02 5.783200e+01
2.027280e+02 4.093600e+01 2.564880e+02 2.564880e+02
4.554400e+01 8.138400e+01 193 1.627920e+02
1 1.003280e+02 2.199200e+01 1.259280e+02
1.208080e+02 1 1.535760e+02 6.960800e+01
2.098960e+02 1.274640e+02 2.462480e+02 2.262800e+02
1 7.370400e+01 1.714960e+02 1.453840e+02
1 1.540880e+02 1.965840e+02 2.564880e+02
1.505040e+02 1.704720e+02 1.935120e+02 193
1.028880e+02 1.175200e+01 1.249040e+02 3.632800e+01
1 1.428240e+02 1.423120e+02 2.411280e+02
1.533600e+01 1 4.349600e+01 6.039200e+01
6.448800e+01 1 1.428240e+02 6.704800e+01
7.268000e+01 1 1.351440e+02 5.783200e+01
3.735200e+01 1 2.088720e+02 1.090320e+02
1.039120e+02 8.496800e+01 1.653520e+02 1.233680e+02
1.151760e+02 1.674000e+02 1.494800e+02 2.339600e+02
7.165600e+01 1 1.346320e+02 5.578400e+01
1.533600e+01 1 4.093600e+01 5.988000e+01
1.730320e+02 1.162000e+02 2.037520e+02 1.597200e+02
1 1.100560e+02 1.392400e+02 2.365200e+02
1.955600e+02 1 2.226960e+02 2.380560e+02
1.049360e+02 8.804000e+01 1.402640e+02 1.177360e+02
1.840800e+01 1.786640e+02 1.428240e+02 2.344720e+02
1 1.428240e+02 1.064720e+02 1.750800e+02
3.888800e+01 6.397600e+01 1.919760e+02 9.316000e+01
2.506400e+01 6.653600e+01 4.503200e+01 1.085200e+02
2.536000e+00 9.162400e+01 3.530400e+01 1.259280e+02
9.704000e+00 2.037520e+02 1.832720e+02 2.564880e+02
3.837600e+01 7.472800e+01 2.052880e+02 1.771280e+02
3.018400e+01 2.155280e+02 1.909520e+02 2.564880e+02
4.656800e+01 1.105680e+02 1.418000e+02 1.300240e+02
1 1 4.349600e+01 1.059600e+02
1.336080e+02 3.069600e+01 2.083600e+02 1.551120e+02
4.452000e+01 1 6.448800e+01 6.858400e+01
4.072000e+00 1.643280e+02 3.479200e+01 2.191120e+02
1 1 4.349600e+01 9.520800e+01
1.202960e+02 1.581840e+02 2.032400e+02 2.365200e+02
1 1.535760e+02 4.452000e+01 2.564880e+02
1.443600e+02 2.278160e+02 1.883920e+02 2.534160e+02
65 1.192720e+02 1.627920e+02 1.699600e+02
1.668880e+02 1 2.083600e+02 1.633040e+02
1.336080e+02 7.370400e+01 2.047760e+02 1.643280e+02
1 8.036000e+01 1.827600e+02 1.571600e+02
1.965840e+02 1 2.564880e+02 2.354960e+02
1.044240e+02 2.201360e+02 1.883920e+02 2.452240e+02
9.704000e+00 2.124560e+02 2.411280e+02 2.564880e+02
3.786400e+01 1.970960e+02 1.213200e+02 2.242320e+02
1.423120e+02 1 2.564880e+02 1.781520e+02
1.124000e+01 2.047760e+02 9.316000e+01 2.365200e+02
1.612560e+02 2.124560e+02 2.411280e+02 2.564880e+02
8.036000e+01 2.608800e+01 1.392400e+02 6.653600e+01
1 1.540880e+02 4.452000e+01 2.564880e+02
1 4.093600e+01 6.602400e+01 1.238800e+02
2.252560e+02 4.144800e+01 2.477840e+02 8.138400e+01
7.114400e+01 2.711200e+01 9.879200e+01 5.629600e+01
6.397600e+01 1 1.213200e+02 6.090400e+01
1.115920e+02 8.394400e+01 1.658640e+02 1.284880e+02
6.551200e+01 1.380000e+01 1.105680e+02 6.192800e+01
3.632800e+01 1.095440e+02 1.418000e+02 1.295120e+02
1.617680e+02 1.499920e+02 2.395920e+02 2.564880e+02
1.750800e+02 8.394400e+01 1.950480e+02 1.238800e+02
1.730320e+02 8.701600e+01 2.006800e+02 129
1.730320e+02 1.197840e+02 2.011920e+02 1.602320e+02
2.352800e+01 1.607440e+02 1.443600e+02 2.073360e+02
6.448800e+01 8.680000e+00 1.249040e+02 6.141600e+01
1 4.093600e+01 4.503200e+01 1.238800e+02
1.325840e+02 1.233680e+02 2.052880e+02 1.699600e+02
1.840800e+01 1 4.042400e+01 5.834400e+01
1.028880e+02 1 1.356560e+02 5.680800e+01
7.626400e+01 2.352800e+01 1.044240e+02 4.912800e+01
9.981600e+01 1.612560e+02 1.412880e+02 1.827600e+02
9.111200e+01 1.592080e+02 1.443600e+02 1.873680e+02
7.984800e+01 2.308880e+02 1.745680e+02 2.564880e+02
1 1 2.148000e+01 9.520800e+01
8.496800e+01 8.394400e+01 1.561360e+02 1.172240e+02
1.110800e+02 7.984800e+01 1.837840e+02 1.520400e+02
1.584800e+01 1 3.940000e+01 5.885600e+01
1.341200e+02 8.496800e+01 1.679120e+02 1.494800e+02
1.730320e+02 1.197840e+02 2.011920e+02 1.551120e+02
1.730320e+02 1.197840e+02 2.011920e+02 1.586960e+02
2.404000e+01 1 1.776400e+02 7.984800e+01
1.840800e+01 1.914640e+02 7.575200e+01 2.339600e+02
9.704000e+00 2.032400e+02 2.564880e+02 2.564880e+02
5.608000e+00 1 4.042400e+01 7.216800e+01
1 9.572000e+01 2.404000e+01 1.223440e+02
1.730320e+02 1.431200e+01 2.047760e+02 1.054480e+02
1.423120e+02 1.228560e+02 2.052880e+02 1.638160e+02
1.023760e+02 1 1.458960e+02 65
1.687200e+01 1.592080e+02 2.037520e+02 2.360080e+02
1.428240e+02 1.059600e+02 2.047760e+02 1.643280e+02
2.093840e+02 1.709840e+02 2.498320e+02 2.288400e+02
4.400800e+01 7.575200e+01 1.781520e+02 1.095440e+02
1.110800e+02 7.984800e+01 2.052880e+02 1.633040e+02
1.668880e+02 8.343200e+01 1.873680e+02 1.499920e+02
4.042400e+01 4.042400e+01 1.202960e+02 7.370400e+01
1 1.428240e+02 1.428240e+02 2.344720e+02
1 1.540880e+02 1.894160e+02 2.564880e+02
1.482400e+01 1.592080e+02 2.416400e+02 2.564880e+02
9.111200e+01 1.202960e+02 2.052880e+02 2.339600e+02
4.349600e+01 8.036000e+01 1.653520e+02 1.233680e+02
3.632800e+01 1.105680e+02 1.418000e+02 1.300240e+02
4.349600e+01 7.933600e+01 7.268000e+01 1.085200e+02
1.069840e+02 8.804000e+01 1.274640e+02 1.141520e+02
3.786400e+01 1.894160e+02 1.919760e+02 2.354960e+02
1.325840e+02 1.249040e+02 1.612560e+02 1.699600e+02
1 1.095440e+02 1.418000e+02 1.412880e+02
1.208080e+02 8.906400e+01 1.546000e+02 1.213200e+02
1.668880e+02 1 2.564880e+02 2.564880e+02
7.216800e+01 1 1.080080e+02 3.888800e+01
1.730320e+02 1.238800e+02 2.032400e+02 1.586960e+02
1.612560e+02 2.226960e+02 2.508560e+02 2.564880e+02
1.110800e+02 8.548000e+01 1.561360e+02 1.192720e+02
1.423120e+02 1 2.119440e+02 1.781520e+02
9.008800e+01 1.218320e+02 1.633040e+02 1.709840e+02
2.165520e+02 1.274640e+02 2.498320e+02 1.914640e+02
3.560000e+00 1.540880e+02 1.336080e+02 2.370320e+02
1.336080e+02 7.370400e+01 2.047760e+02 1.817360e+02
1.730320e+02 1.431200e+01 2.047760e+02 9.520800e+01
1.226400e+01 1.561360e+02 1.894160e+02 2.339600e+02
1 4.093600e+01 6.602400e+01 1.315600e+02
1 1.443600e+02 8.599200e+01 1.842960e+02
1.730320e+02 1.090320e+02 2.047760e+02 1.597200e+02
1 1.551120e+02 3.120800e+01 2.564880e+02
4.503200e+01 7.933600e+01 1.535760e+02 1.197840e+02
2.506400e+01 1.115920e+02 1.494800e+02 1.453840e+02
2.506400e+01 1.115920e+02 1.494800e+02 1.361680e+02
1.438480e+02 1.592080e+02 2.032400e+02 2.339600e+02
7.319200e+01 2.242320e+02 1.832720e+02 2.564880e+02
6.448800e+01 1 1.279760e+02 5.476000e+01
1.049360e+02 1 1.356560e+02 6.039200e+01
65 1.346320e+02 1.412880e+02 1.638160e+02
7.165600e+01 1 1.346320e+02 5.988000e+01
1.192720e+02 1.218320e+02 1.617680e+02 1.551120e+02
1.423120e+02 2.093840e+02 2.564880e+02 2.564880e+02
1 1.243920e+02 1.663760e+02 1.842960e+02
1 1.100560e+02 1.418000e+02 1.412880e+02
3.632800e+01 7.370400e+01 1.208080e+02 1.136400e+02
1.072800e+01 2.096800e+01 5.117600e+01 8.138400e+01
1.725200e+02 4.964000e+01 2.073360e+02 1.633040e+02
3.888800e+01 6.448800e+01 1.919760e+02 9.316000e+01
1 1.115920e+02 1.371920e+02 1.494800e+02
1.889040e+02 1 2.088720e+02 6.858400e+01
1 1.100560e+02 1.566480e+02 1.448720e+02
1.072800e+01 1 4.349600e+01 6.039200e+01
1.023760e+02 7.656000e+00 1.356560e+02 3.172000e+01
1.023760e+02 1 1.438480e+02 65
2.196240e+02 2.352800e+01 2.488080e+02 1.156880e+02
6.551200e+01 1 1.418000e+02 6.295200e+01
2.404000e+01 5.322400e+01 6.858400e+01 7.472800e+01
6.448800e+01 4.093600e+01 1.013520e+02 6.192800e+01
2.083600e+02 2.134800e+02 2.426640e+02 2.436880e+02
2.001680e+02 1 2.564880e+02 2.375440e+02
1.584800e+01 1 4.144800e+01 6.039200e+01
6.807200e+01 4.093600e+01 1.013520e+02 6.192800e+01
1 1.218320e+02 1.617680e+02 1.771280e+02
2.093840e+02 2.301600e+01 2.564880e+02 2.334480e+02
2.006800e+02 1 2.564880e+02 2.329360e+02
1.612560e+02 2.058000e+02 2.564880e+02 2.564880e+02
1.202960e+02 1.489680e+02 1.694480e+02 1.945360e+02
2.506400e+01 1.115920e+02 1.325840e+02 1.366800e+02
3.888800e+01 7.524000e+01 1.714960e+02 1.525520e+02
1 1.095440e+02 1.418000e+02 1.546000e+02
1.730320e+02 1.431200e+01 2.063120e+02 1.192720e+02
6.397600e+01 6.632000e+00 1.202960e+02 6.090400e+01
4.400800e+01 8.087200e+01 6.858400e+01 1.100560e+02
1.208080e+02 1 1.653520e+02 7.472800e+01
1 9.572000e+01 2.404000e+01 1.213200e+02
2.078480e+02 1.919760e+02 2.477840e+02 2.564880e+02
1.687200e+01 1.817360e+02 1.284880e+02 2.252560e+02
7.882400e+01 3.560000e+00 1.274640e+02 2.711200e+01
1 1.551120e+02 3.837600e+01 2.564880e+02
1.243920e+02 1.674000e+02 1.494800e+02 1.945360e+02
1.612560e+02 1.658640e+02 2.564880e+02 2.564880e+02
1.725200e+02 5.527200e+01 2.047760e+02 1.295120e+02
3.632800e+01 7.370400e+01 1.704720e+02 1.136400e+02
5.096000e+00 1.607440e+02 9.264800e+01 2.211600e+02
1.725200e+02 5.527200e+01 2.073360e+02 1.633040e+02
2.006800e+02 1.305360e+02 2.564880e+02 2.564880e+02
6.397600e+01 6.632000e+00 1.080080e+02 6.090400e+01
1.175200e+01 1.115920e+02 1.325840e+02 1.448720e+02
9.704000e+00 2.037520e+02 2.564880e+02 2.564880e+02
1.612560e+02 2.226960e+02 2.165520e+02 2.564880e+02
8.804000e+01 8.240800e+01 1.704720e+02 1.525520e+02
1.494800e+02 1 2.088720e+02 1.633040e+02
2.170640e+02 1.789600e+01 2.534160e+02 1.141520e+02
1 1.428240e+02 1.202960e+02 1.771280e+02
2.006800e+02 2.404000e+01 2.544400e+02 2.375440e+02
1 1.551120e+02 1.970960e+02 2.564880e+02
1.151760e+02 1.622800e+02 2.037520e+02 2.339600e+02
3.632800e+01 7.216800e+01 1.853200e+02 1.136400e+02
2.165520e+02 1.840800e+01 2.523920e+02 1.151760e+02
1.054480e+02 1 1.423120e+02 6.295200e+01
1.668880e+02 8.087200e+01 2.052880e+02 1.653520e+02
4.605600e+01 8.138400e+01 1.653520e+02 1.233680e+02
6.448800e+01 8.680000e+00 1.249040e+02 5.936800e+01
1.392400e+02 1.597200e+02 2.017040e+02 2.365200e+02
1.049360e+02 8.394400e+01 1.658640e+02 1.284880e+02
1.730320e+02 1.162000e+02 2.006800e+02 1.551120e+02
1 1.218320e+02 1.633040e+02 1.842960e+02
1.674000e+02 8.599200e+01 2.052880e+02 1.551120e+02
3.632800e+01 7.370400e+01 1.714960e+02 1.141520e+02
1.668880e+02 1 2.109200e+02 1.633040e+02
2.201360e+02 4.452000e+01 2.564880e+02 2.324240e+02
1.023760e+02 1 1.505040e+02 65
1 9.623200e+01 4.656800e+01 1.305360e+02
2.096800e+01 1 2.022160e+02 1.085200e+02
1.789600e+01 1 3.786400e+01 5.424800e+01
3.940000e+01 2.191120e+02 1.919760e+02 2.564880e+02
2.073360e+02 2.058000e+02 2.503440e+02 2.457360e+02
1.162000e+02 1.489680e+02 2.032400e+02 2.319120e+02
8.804000e+01 7.984800e+01 1.950480e+02 1.520400e+02
3.018400e+01 2.242320e+02 1.832720e+02 2.564880e+02
1 6.909600e+01 5.476000e+01 1.402640e+02
1.892000e+01 1 3.837600e+01 5.424800e+01
4.554400e+01 8.138400e+01 8.292000e+01 1.090320e+02
5.220000e+01 4.810400e+01 1.069840e+02 7.165600e+01
6.397600e+01 1 1.080080e+02 3.940000e+01
65 1.249040e+02 1.627920e+02 1.699600e+02
9.981600e+01 1.243920e+02 1.607440e+02 1.745680e+02
1.044240e+02 2.124560e+02 2.411280e+02 2.564880e+02
2.001680e+02 2.104080e+02 2.467600e+02 2.447120e+02
1 7.421600e+01 2.660000e+01 1.228560e+02
1 1 4.196000e+01 1.069840e+02
1.965840e+02 1.653520e+02 2.503440e+02 2.564880e+02
1.438480e+02 1.704720e+02 1.935120e+02 2.206480e+02
4.072000e+00 1.602320e+02 9.930400e+01 2.191120e+02
4.656800e+01 8.496800e+01 8.957600e+01 1.121040e+02
9.704000e+00 1.919760e+02 1.617680e+02 2.564880e+02
2.073360e+02 1.274640e+02 2.498320e+02 2.324240e+02
1.636000e+01 1 3.837600e+01 5.476000e+01
1.412880e+02 2.088720e+02 1.981200e+02 2.360080e+02
2.134800e+02 2.042640e+02 2.457360e+02 2.329360e+02
65 1.192720e+02 1.627920e+02 1.863440e+02
1.208080e+02 1 1.428240e+02 6.704800e+01
1.074960e+02 2.191120e+02 1.909520e+02 2.564880e+02
2.536000e+00 9.162400e+01 3.530400e+01 1.233680e+02
1.453840e+02 1.853200e+02 1.919760e+02 2.052880e+02
2.093840e+02 1 2.564880e+02 2.324240e+02
9.704000e+00 2.186000e+02 1.336080e+02 2.564880e+02
1.418000e+02 1.371920e+02 1.914640e+02 1.627920e+02
2.098960e+02 4.400800e+01 2.564880e+02 2.329360e+02
1.438480e+02 1 2.011920e+02 9.111200e+01
1.336080e+02 7.370400e+01 1.935120e+02 1.105680e+02
4.584000e+00 9.776800e+01 2.404000e+01 1.213200e+02
2.404000e+01 1 1.776400e+02 8.036000e+01
1.448720e+02 8.394400e+01 1.663760e+02 1.540880e+02
1.402640e+02 1.720080e+02 193 2.247440e+02
7.626400e+01 3.530400e+01 9.879200e+01 5.629600e+01
7.626400e+01 2.352800e+01 1.249040e+02 5.373600e+01
1.162000e+02 1.894160e+02 1.919760e+02 2.354960e+02
5.168800e+01 2.037520e+02 1.428240e+02 2.344720e+02
1.840800e+01 1.817360e+02 1.284880e+02 2.252560e+02
1.638160e+02 1 2.093840e+02 6.858400e+01
2.119440e+02 8.855200e+01 2.503440e+02 1.412880e+02
5.168800e+01 1 1.356560e+02 6.858400e+01
3.837600e+01 1 2.088720e+02 1.090320e+02
1.110800e+02 7.984800e+01 1.950480e+02 1.520400e+02
1 1.100560e+02 5.015200e+01 1.346320e+02
1.730320e+02 1.431200e+01 2.047760e+02 1.192720e+02
1 1.018640e+02 2.199200e+01 1.300240e+02
3.888800e+01 7.319200e+01 1.714960e+02 1.284880e+02
1.226400e+01 1.755920e+02 1.438480e+02 2.339600e+02
2.093840e+02 1.274640e+02 2.462480e+02 2.262800e+02
1.175200e+01 1.115920e+02 1.371920e+02 1.448720e+02
7.626400e+01 1.072800e+01 1.249040e+02 3.888800e+01
2.506400e+01 1.115920e+02 1.325840e+02 1.377040e+02
1 1.115920e+02 1.494800e+02 1.453840e+02
1.730320e+02 1.249040e+02 1.981200e+02 1.448720e+02
1.584800e+01 1 4.503200e+01 6.090400e+01
1.725200e+02 1.431200e+01 2.073360e+02 1.633040e+02
2.196240e+02 2.404000e+01 2.488080e+02 1.131280e+02
6.397600e+01 1 1.213200e+02 6.141600e+01
7.319200e+01 2.242320e+02 1.965840e+02 2.564880e+02
1.720080e+02 8.394400e+01 2.047760e+02 1.597200e+02
1.730320e+02 1.249040e+02 2.032400e+02 1.551120e+02
1.049360e+02 1.243920e+02 1.612560e+02 1.709840e+02
1 1.428240e+02 1.438480e+02 2.339600e+02
1.802000e+02 7.984800e+01 2.022160e+02 1.074960e+02
3.888800e+01 7.524000e+01 1.714960e+02 1.121040e+02
1 1.192720e+02 5.220000e+01 1.402640e+02
1 9.572000e+01 2.199200e+01 1.228560e+02
2.252560e+02 2.404000e+01 2.493200e+02 8.138400e+01
1 1.192720e+02 5.220000e+01 1.407760e+02
1 1 4.400800e+01 1.284880e+02
3.888800e+01 7.677600e+01 8.138400e+01 1.121040e+02
1.674000e+02 1 2.093840e+02 1.561360e+02
4.656800e+01 8.496800e+01 1.330960e+02 1.172240e+02
1 7.421600e+01 3.479200e+01 1.300240e+02
2.119440e+02 1 2.534160e+02 1.412880e+02
9.981600e+01 1.612560e+02 1.586960e+02 1.986320e+02
1.617680e+02 2.303760e+02 1.965840e+02 2.498320e+02
1.418000e+02 1.202960e+02 2.052880e+02 1.689360e+02
1.202960e+02 1.643280e+02 1.428240e+02 1.945360e+02
7.268000e+01 1 9.264800e+01 5.373600e+01
1 9.316000e+01 3.479200e+01 1.259280e+02
1.226400e+01 1.981200e+02 3.735200e+01 2.206480e+02
1.131280e+02 8.496800e+01 1.679120e+02 1.494800e+02
2.191120e+02 7.656000e+00 2.564880e+02 8.240800e+01
1.584800e+01 1 3.735200e+01 5.527200e+01
1.738400e+01 1 3.735200e+01 5.424800e+01
2.119440e+02 1 2.564880e+02 1.412880e+02
6.448800e+01 8.680000e+00 1.080080e+02 3.940000e+01
2.073360e+02 2.093840e+02 2.564880e+02 2.564880e+02
1 1 4.196000e+01 1.259280e+02
1.028880e+02 1 1.356560e+02 4.042400e+01
1 1.100560e+02 5.220000e+01 1.412880e+02
1 6.909600e+01 5.629600e+01 1.402640e+02
1.674000e+02 9.469600e+01 2.052880e+02 1.551120e+02
1 1 4.400800e+01 1.223440e+02
2.104080e+02 4.093600e+01 2.564880e+02 2.114320e+02
4.452000e+01 1 8.292000e+01 6.858400e+01
1.151760e+02 1.592080e+02 2.037520e+02 2.360080e+02
4.554400e+01 8.138400e+01 1.679120e+02 1.494800e+02
4.349600e+01 7.933600e+01 6.295200e+01 1.085200e+02
1 9.623200e+01 1.418000e+02 1.546000e+02
2.404000e+01 5.322400e+01 1.776400e+02 7.984800e+01
6.632000e+00 2.232080e+02 5.424800e+01 2.564880e+02
2.506400e+01 1.612560e+02 9.264800e+01 1.914640e+02
2.088720e+02 1.817360e+02 2.467600e+02 2.288400e+02
1 1.428240e+02 1.438480e+02 2.564880e+02
1.105680e+02 8.394400e+01 1.658640e+02 1.284880e+02
6.448800e+01 4.093600e+01 1.008400e+02 6.141600e+01
1.755920e+02 2.967200e+01 2.027280e+02 8.189600e+01
2.093840e+02 4.452000e+01 2.564880e+02 2.324240e+02
1.428240e+02 1.233680e+02 2.052880e+02 1.633040e+02
1 1.023760e+02 2.864800e+01 1.259280e+02
65 1.755920e+02 1.423120e+02 2.098960e+02
2.083600e+02 2.134800e+02 2.452240e+02 2.477840e+02
3.376800e+01 2.319120e+02 9.316000e+01 2.513680e+02
7.114400e+01 2.711200e+01 1.059600e+02 5.629600e+01
1.412880e+02 1.853200e+02 1.924880e+02 2.319120e+02
1 1.023760e+02 2.404000e+01 1.300240e+02
1 1 3.530400e+01 1.300240e+02
1 1.100560e+02 1.418000e+02 1.448720e+02
2.119440e+02 1 2.319120e+02 1.146640e+02
5.096000e+00 1.592080e+02 4.452000e+01 2.211600e+02
1.556240e+02 2.134800e+02 2.564880e+02 2.564880e+02
4.042400e+01 4.042400e+01 1.069840e+02 7.370400e+01
1.310480e+02 1.197840e+02 1.602320e+02 1.402640e+02
1.991440e+02 2.058000e+02 2.564880e+02 2.457360e+02
1 1.018640e+02 2.199200e+01 1.259280e+02
1.458960e+02 1.704720e+02 1.935120e+02 1.924880e+02
2.083600e+02 1.448720e+02 2.564880e+02 2.564880e+02
7.984800e+01 7.144000e+00 1.018640e+02 4.298400e+01
1.453840e+02 1.761040e+02 1.755920e+02 2.017040e+02
7.216800e+01 8.680000e+00 1.080080e+02 3.581600e+01
1.069840e+02 1.704720e+02 1.935120e+02 2.349840e+02
1.044240e+02 8.752800e+01 1.346320e+02 1.151760e+02
2.170640e+02 2.262800e+02 2.467600e+02 2.482960e+02
2.073360e+02 2.058000e+02 2.564880e+02 2.457360e+02
3.632800e+01 7.165600e+01 6.602400e+01 1.136400e+02
1 1.428240e+02 8.906400e+01 1.919760e+02
2.145040e+02 1 2.564880e+02 8.189600e+01
6.448800e+01 4.810400e+01 1.069840e+02 7.012000e+01
9.008800e+01 8.752800e+01 1.105680e+02 1.121040e+02
1.730320e+02 1.197840e+02 1.981200e+02 1.448720e+02
1.126160e+02 8.855200e+01 1.535760e+02 1.197840e+02
1.638160e+02 1 1.883920e+02 4.042400e+01
3.560000e+00 1.612560e+02 7.114400e+01 2.375440e+02
1 1.428240e+02 8.599200e+01 1.919760e+02
1.392400e+02 1.581840e+02 2.037520e+02 2.365200e+02
3.560000e+00 1.592080e+02 1.443600e+02 2.375440e+02
2.006800e+02 2.124560e+02 2.564880e+02 2.564880e+02
2.006800e+02 1 2.564880e+02 2.375440e+02
6.397600e+01 1.431200e+01 1.008400e+02 6.090400e+01
6.448800e+01 9.192000e+00 1.080080e+02 3.940000e+01
1.428240e+02 1.213200e+02 1.638160e+02 1.525520e+02
1.482400e+01 1 4.144800e+01 6.039200e+01
1 6.909600e+01 1.418000e+02 1.402640e+02
1.840800e+01 1.914640e+02 1.428240e+02 2.344720e+02
1.960720e+02 1 2.226960e+02 2.452240e+02
2.262800e+02 2.278160e+02 2.564880e+02 2.564880e+02
1.740560e+02 1.254160e+02 1.991440e+02 1.530640e+02
4.554400e+01 8.087200e+01 1.827600e+02 1.499920e+02
2.104080e+02 1.371920e+02 2.457360e+02 2.206480e+02
5.220000e+01 1 7.216800e+01 6.756000e+01
2.506400e+01 1.115920e+02 1.325840e+02 1.494800e+02
1.674000e+02 2.134800e+02 2.564880e+02 2.564880e+02
1 9.162400e+01 3.530400e+01 1.315600e+02
4.584000e+00 7.421600e+01 3.274400e+01 1.069840e+02
1.960720e+02 5.476000e+01 2.165520e+02 2.452240e+02
1 1.095440e+02 1.566480e+02 1.412880e+02
7.626400e+01 2.352800e+01 1.249040e+02 5.476000e+01
1.412880e+02 1.674000e+02 1.960720e+02 2.252560e+02
1.674000e+02 1.202960e+02 2.006800e+02 1.551120e+02
1.674000e+02 4.042400e+01 2.083600e+02 1.561360e+02
2.506400e+01 1.115920e+02 1.325840e+02 1.387280e+02
1.674000e+02 2.370320e+02 2.508560e+02 2.564880e+02
8.168000e+00 8.168000e+00 5.066400e+01 8.138400e+01
1.842960e+02 1.202960e+02 2.042640e+02 1.561360e+02
2.078480e+02 1 2.564880e+02 2.564880e+02
2.124560e+02 1 2.564880e+02 1.146640e+02
9.572000e+01 1.745680e+02 1.443600e+02 1.945360e+02
1.730320e+02 1.249040e+02 2.032400e+02 1.546000e+02
1 1.095440e+02 8.036000e+01 1.412880e+02
1.341200e+02 2.196240e+02 1.909520e+02 2.564880e+02
4.554400e+01 8.138400e+01 1.561360e+02 1.172240e+02
2.096800e+01 4.810400e+01 1.771280e+02 1.085200e+02
1.556240e+02 2.288400e+02 2.298640e+02 2.564880e+02
2.093840e+02 1.259280e+02 2.503440e+02 2.288400e+02
1 1.540880e+02 2.916000e+01 2.564880e+02
3.018400e+01 2.303760e+02 1.223440e+02 2.564880e+02
2.093840e+02 1 2.564880e+02 2.334480e+02
3.837600e+01 2.037520e+02 1.428240e+02 2.344720e+02
1.730320e+02 5.373600e+01 2.068240e+02 1.551120e+02
2.096800e+01 5.424800e+01 1.766160e+02 8.036000e+01
6.551200e+01 2.711200e+01 1.392400e+02 6.244000e+01
6.551200e+01 1.592080e+02 1.443600e+02 193
7.114400e+01 2.711200e+01 1.243920e+02 6.192800e+01
8.087200e+01 1 1.356560e+02 5.680800e+01
1.668880e+02 8.087200e+01 2.047760e+02 1.643280e+02
2.119440e+02 2.199200e+01 2.539280e+02 1.433360e+02
1.674000e+02 8.240800e+01 2.052880e+02 1.551120e+02
4.605600e+01 8.138400e+01 1.658640e+02 1.284880e+02
1.853200e+02 1.213200e+02 2.052880e+02 1.668880e+02
2.191120e+02 5.608000e+00 2.564880e+02 5.476000e+01
2.119440e+02 2.404000e+01 2.544400e+02 1.546000e+02
4.554400e+01 8.189600e+01 7.268000e+01 1.085200e+02
1.840800e+01 1 3.837600e+01 5.424800e+01
1.131280e+02 8.087200e+01 1.827600e+02 1.499920e+02
8.036000e+01 6.448800e+01 1.791760e+02 8.394400e+01
7.114400e+01 2.711200e+01 9.213600e+01 5.578400e+01
2.119440e+02 4.144800e+01 2.518800e+02 1.505040e+02
4.656800e+01 8.394400e+01 1.561360e+02 1.172240e+02
7.728800e+01 3.018400e+01 1.249040e+02 5.476000e+01
1.730320e+02 1.059600e+02 2.042640e+02 1.551120e+02
1.336080e+02 7.370400e+01 1.904400e+02 1.049360e+02
1.124000e+01 2.078480e+02 3.172000e+01 2.324240e+02
9.981600e+01 1.202960e+02 2.052880e+02 1.745680e+02
1.126160e+02 8.855200e+01 1.346320e+02 1.151760e+02
1.259280e+02 1.182480e+02 1.566480e+02 1.397520e+02
8.036000e+01 6.448800e+01 1.919760e+02 9.162400e+01
1.482400e+01 2.078480e+02 5.168800e+01 2.324240e+02
3.684000e+01 2.047760e+02 9.316000e+01 2.242320e+02
2.119440e+02 1 2.564880e+02 1.146640e+02
4.452000e+01 1 7.882400e+01 6.858400e+01
1 1.090320e+02 2.762400e+01 1.300240e+02
4.912800e+01 8.343200e+01 7.268000e+01 1.085200e+02
4.554400e+01 7.984800e+01 1.325840e+02 1.105680e+02
5.220000e+01 4.810400e+01 9.725600e+01 7.012000e+01
2.063120e+02 4.452000e+01 2.564880e+02 2.564880e+02
4.554400e+01 8.138400e+01 8.138400e+01 1.090320e+02
1.840800e+01 1.914640e+02 5.578400e+01 2.180880e+02
2.134800e+02 2.042640e+02 2.447120e+02 2.283280e+02
1.325840e+02 1.090320e+02 2.052880e+02 1.699600e+02
7.882400e+01 3.560000e+00 1.274640e+02 4.298400e+01
1.392400e+02 1.597200e+02 2.037520e+02 2.365200e+02
9.316000e+01 2.608800e+01 1.392400e+02 6.653600e+01
9.111200e+01 1.551120e+02 1.786640e+02 1.945360e+02
1.617680e+02 2.349840e+02 2.298640e+02 2.564880e+02
8.189600e+01 8.394400e+01 1.561360e+02 1.172240e+02
1 1.095440e+02 7.882400e+01 1.346320e+02
2.455200e+01 1.786640e+02 7.114400e+01 2.058000e+02
8.087200e+01 8.394400e+01 1.325840e+02 1.141520e+02
8.036000e+01 3.888800e+01 1.243920e+02 6.192800e+01
1 9.572000e+01 3.428000e+01 1.259280e+02
1 1.438480e+02 8.599200e+01 1.842960e+02
2.506400e+01 1.115920e+02 1.602320e+02 1.494800e+02
1.121040e+02 1 1.356560e+02 2.557600e+01
4.503200e+01 7.933600e+01 6.756000e+01 1.085200e+02
1.668880e+02 8.189600e+01 2.052880e+02 1.668880e+02
1.750800e+02 1.044240e+02 1.950480e+02 1.238800e+02
4.349600e+01 8.036000e+01 8.548000e+01 1.110800e+02
1 1 4.759200e+01 1.023760e+02
1.151760e+02 1.653520e+02 2.032400e+02 2.360080e+02
1.694480e+02 2.349840e+02 2.298640e+02 2.564880e+02
1.423120e+02 2.170640e+02 1.981200e+02 2.564880e+02
4.503200e+01 7.933600e+01 1.346320e+02 1.151760e+02
2.165520e+02 129 2.442000e+02 1.776400e+02
1 8.957600e+01 3.530400e+01 1.300240e+02
2.134800e+02 1.919760e+02 2.467600e+02 2.482960e+02
2.288400e+02 8.138400e+01 2.493200e+02 1.141520e+02
1.443600e+02 2.252560e+02 1.909520e+02 2.564880e+02
1.674000e+02 1.202960e+02 2.047760e+02 1.592080e+02
65 1.330960e+02 1.412880e+02 1.638160e+02
4.349600e+01 7.933600e+01 8.138400e+01 1.095440e+02
1 6.909600e+01 7.933600e+01 1.402640e+02
2.093840e+02 1.305360e+02 2.564880e+02 2.334480e+02
8.804000e+01 8.599200e+01 1.105680e+02 1.136400e+02
1.034000e+02 8.240800e+01 1.704720e+02 1.525520e+02
1.648400e+02 2.124560e+02 2.093840e+02 2.549520e+02
1.489680e+02 1.028880e+02 2.011920e+02 1.602320e+02
1.034000e+02 1 1.423120e+02 6.295200e+01
1 1.397520e+02 1.284880e+02 1.842960e+02
3.560000e+00 9.162400e+01 3.530400e+01 1.223440e+02
1.584800e+01 1 4.349600e+01 6.039200e+01
2.083600e+02 2.221840e+02 2.467600e+02 2.564880e+02
3.632800e+01 2.314000e+02 9.316000e+01 2.564880e+02
2.001680e+02 2.191120e+02 2.503440e+02 2.564880e+02
2.083600e+02 1.274640e+02 2.564880e+02 2.564880e+02
7.984800e+01 2.329360e+02 1.750800e+02 2.564880e+02
9.008800e+01 8.650400e+01 1.105680e+02 1.121040e+02
4.072000e+00 1.592080e+02 3.837600e+01 2.191120e+02
7.882400e+01 1.277600e+01 1.074960e+02 4.298400e+01
2.191120e+02 7.656000e+00 2.564880e+02 5.476000e+01
1.840800e+01 1.991440e+02 7.575200e+01 2.252560e+02
1.028880e+02 1 1.356560e+02 3.632800e+01
2.506400e+01 1.607440e+02 9.264800e+01 1.914640e+02
9.776800e+01 1 1.356560e+02 5.680800e+01
1.730320e+02 3.069600e+01 2.083600e+02 1.551120e+02
2.145040e+02 1 2.564880e+02 1.162000e+02
4.605600e+01 8.138400e+01 1.325840e+02 1.167120e+02
2.006800e+02 2.124560e+02 2.278160e+02 2.442000e+02
2.150160e+02 1.919760e+02 2.477840e+02 2.237200e+02
1.817360e+02 9.418400e+01 2.052880e+02 1.540880e+02
5.220000e+01 4.810400e+01 9.725600e+01 7.165600e+01
3.837600e+01 1.904400e+02 1.453840e+02 2.283280e+02
2.104080e+02 1.156880e+02 2.564880e+02 2.114320e+02
1.397520e+02 1.986320e+02 1.919760e+02 2.354960e+02
1.612560e+02 2.365200e+02 2.416400e+02 2.564880e+02
9.704000e+00 1.919760e+02 1.909520e+02 2.564880e+02
1.044240e+02 2.201360e+02 1.919760e+02 2.452240e+02
1 9.162400e+01 3.530400e+01 1.259280e+02
8.855200e+01 8.599200e+01 1.346320e+02 1.151760e+02
2.083600e+02 2.134800e+02 2.564880e+02 2.564880e+02
7.984800e+01 2.329360e+02 1.745680e+02 2.564880e+02
1.044240e+02 2.155280e+02 1.919760e+02 2.534160e+02
1.443600e+02 1.592080e+02 2.032400e+02 2.308880e+02
1.617680e+02 2.329360e+02 2.395920e+02 2.564880e+02
2.104080e+02 1.274640e+02 2.447120e+02 2.114320e+02
2.083600e+02 1.576720e+02 2.564880e+02 2.482960e+02
6.551200e+01 1 1.346320e+02 6.192800e+01
4.400800e+01 7.933600e+01 6.653600e+01 1.105680e+02
9.367200e+01 2.711200e+01 1.336080e+02 5.424800e+01
3.735200e+01 1.802000e+02 1.284880e+02 2.073360e+02
2.114320e+02 2.278160e+02 2.564880e+02 2.564880e+02
1.674000e+02 1.254160e+02 1.991440e+02 1.551120e+02
1 1.126160e+02 4.964000e+01 1.346320e+02
2.201360e+02 4.452000e+01 2.564880e+02 2.288400e+02
4.584000e+00 7.421600e+01 3.274400e+01 9.879200e+01
2.250400e+01 5.424800e+01 8.036000e+01 7.626400e+01
2.145040e+02 6.858400e+01 2.493200e+02 1.238800e+02
3.560000e+00 2.170640e+02 2.916000e+01 2.564880e+02
6.448800e+01 1 1.249040e+02 5.476000e+01
8.189600e+01 8.548000e+01 1.105680e+02 1.121040e+02
2.063120e+02 1 2.564880e+02 1.505040e+02
8.189600e+01 8.548000e+01 1.156880e+02 1.141520e+02
1.789600e+01 1 3.786400e+01 5.373600e+01
7.370400e+01 1.243920e+02 1.612560e+02 2.083600e+02
1.730320e+02 1.213200e+02 1.945360e+02 1.551120e+02
4.810400e+01 1.115920e+02 1.325840e+02 1.387280e+02
2.093840e+02 1.919760e+02 2.406160e+02 2.221840e+02
9.008800e+01 1.243920e+02 1.612560e+02 1.709840e+02
1.730320e+02 1.431200e+01 2.027280e+02 8.189600e+01
3.018400e+01 2.303760e+02 1.423120e+02 2.564880e+02
1.622800e+02 1.919760e+02 193 2.186000e+02
1.955600e+02 1.274640e+02 2.211600e+02 2.380560e+02
5.168800e+01 1 7.882400e+01 6.807200e+01
8.855200e+01 8.599200e+01 1.105680e+02 1.136400e+02
2.404000e+01 5.322400e+01 1.525520e+02 7.677600e+01
9.674400e+01 2.711200e+01 1.336080e+02 5.424800e+01
2.145040e+02 1.274640e+02 2.503440e+02 1.950480e+02
8.036000e+01 8.650400e+01 1.044240e+02 1.126160e+02
4.605600e+01 8.138400e+01 1.259280e+02 1.121040e+02
3.888800e+01 7.677600e+01 6.858400e+01 1.121040e+02
1.674000e+02 8.036000e+01 2.052880e+02 1.551120e+02
2.250400e+01 6.192800e+01 4.452000e+01 8.138400e+01
1.162000e+02 1.674000e+02 1.494800e+02 2.257680e+02
1.533600e+01 1 3.940000e+01 5.885600e+01
1 1.428240e+02 8.599200e+01 1.842960e+02
1.617680e+02 2.349840e+02 2.390800e+02 2.564880e+02
1.617680e+02 2.329360e+02 2.411280e+02 2.564880e+02
3.837600e+01 7.472800e+01 7.933600e+01 1.136400e+02
2.088720e+02 1.371920e+02 2.457360e+02 2.206480e+02
1.423120e+02 1.202960e+02 2.052880e+02 1.638160e+02
7.656000e+00 1.540880e+02 1.438480e+02 2.339600e+02
65 1.392400e+02 1.336080e+02 1.638160e+02
1.151760e+02 1.668880e+02 2.027280e+02 2.360080e+02
1.612560e+02 2.226960e+02 2.022160e+02 2.564880e+02
8.168000e+00 1 5.066400e+01 1.146640e+02
1 4.093600e+01 4.196000e+01 1.059600e+02
3.940000e+01 2.329360e+02 1.208080e+02 2.564880e+02
3.837600e+01 2.037520e+02 1.428240e+02 2.283280e+02
4.554400e+01 8.189600e+01 8.138400e+01 1.090320e+02
1.730320e+02 1.249040e+02 1.981200e+02 1.540880e+02
1.228560e+02 1.735440e+02 1.484560e+02 2.093840e+02
4.656800e+01 8.496800e+01 8.548000e+01 1.105680e+02
9.776800e+01 2.762400e+01 1.336080e+02 5.424800e+01
2.170640e+02 3.560000e+00 2.564880e+02 8.240800e+01
1.668880e+02 8.343200e+01 1.899280e+02 1.499920e+02
1.584800e+01 5.096000e+00 3.940000e+01 5.885600e+01
1.069840e+02 1.597200e+02 2.017040e+02 2.365200e+02
2.711200e+01 6.909600e+01 5.476000e+01 1.238800e+02
2.455200e+01 1.786640e+02 7.114400e+01 2.006800e+02
1.233680e+02 1 1.586960e+02 6.960800e+01
1.124000e+01 1.755920e+02 1.423120e+02 2.411280e+02
1.965840e+02 3.069600e+01 2.160400e+02 2.354960e+02
4.349600e+01 7.933600e+01 6.756000e+01 1.085200e+02
1.090320e+02 8.189600e+01 1.827600e+02 1.540880e+02
9.981600e+01 1.243920e+02 1.663760e+02 1.745680e+02
2.001680e+02 1.274640e+02 2.211600e+02 2.354960e+02
3.837600e+01 5.424800e+01 8.036000e+01 7.626400e+01
2.088720e+02 2.262800e+02 2.308880e+02 2.472720e+02
1 1.023760e+02 2.199200e+01 1.259280e+02
2.088720e+02 129 2.488080e+02 2.288400e+02
1.740560e+02 129 1.950480e+02 1.551120e+02
1.423120e+02 8.343200e+01 2.052880e+02 1.638160e+02
1.668880e+02 8.240800e+01 2.052880e+02 1.551120e+02
1.994400e+01 1.827600e+02 1.039120e+02 2.119440e+02
1.556240e+02 2.303760e+02 1.965840e+02 2.564880e+02
2.088720e+02 1.274640e+02 2.498320e+02 2.206480e+02
1.889040e+02 1 2.109200e+02 6.858400e+01
6.448800e+01 4.093600e+01 1.008400e+02 6.090400e+01
4.042400e+01 4.042400e+01 6.653600e+01 7.370400e+01
7.216800e+01 8.680000e+00 1.080080e+02 3.888800e+01
8.804000e+01 8.650400e+01 1.156880e+02 1.141520e+02
2.506400e+01 1.115920e+02 1.325840e+02 1.469200e+02
1 1.428240e+02 1.202960e+02 2.073360e+02
6.448800e+01 9.192000e+00 9.418400e+01 3.940000e+01
6.551200e+01 1 1.346320e+02 6.090400e+01
1.156880e+02 8.855200e+01 1.402640e+02 1.177360e+02
1.151760e+02 1.674000e+02 1.494800e+02 2.088720e+02
1 1.100560e+02 4.656800e+01 1.305360e+02
2.104080e+02 129 2.488080e+02 2.206480e+02
1.755920e+02 1.059600e+02 2.042640e+02 1.551120e+02
6.960800e+01 1.530640e+02 1.202960e+02 1.771280e+02
1.121040e+02 8.906400e+01 1.346320e+02 1.172240e+02
9.192000e+00 2.175760e+02 1.745680e+02 2.564880e+02
1.208080e+02 1.592080e+02 2.032400e+02 2.380560e+02
6.551200e+01 2.711200e+01 1.069840e+02 6.244000e+01
1 1.003280e+02 2.199200e+01 1.228560e+02
1.533600e+01 9.316000e+01 3.479200e+01 1.259280e+02
2.455200e+01 1.786640e+02 1.428240e+02 2.083600e+02
1.162000e+02 1.674000e+02 1.494800e+02 2.288400e+02
7.268000e+01 8.087200e+01 1.709840e+02 1.233680e+02
1 1.428240e+02 1.208080e+02 1.842960e+02
2.109200e+02 2.370320e+02 2.508560e+02 2.564880e+02
3.888800e+01 7.677600e+01 1.259280e+02 1.121040e+02
1.049360e+02 8.804000e+01 129 1.131280e+02
5.015200e+01 8.343200e+01 8.548000e+01 1.100560e+02
1.392400e+02 1 1.586960e+02 6.960800e+01
5.168800e+01 1 7.882400e+01 6.756000e+01
1.423120e+02 2.017040e+02 1.653520e+02 2.247440e+02
8.906400e+01 8.650400e+01 1.346320e+02 1.172240e+02
2.250400e+01 6.192800e+01 4.452000e+01 1.146640e+02
1.960720e+02 2.124560e+02 2.165520e+02 2.452240e+02
1.730320e+02 1.238800e+02 2.032400e+02 1.551120e+02
3.888800e+01 7.677600e+01 6.653600e+01 1.121040e+02
8.957600e+01 2.199200e+01 1.259280e+02 4.349600e+01
1.458960e+02 1.674000e+02 1.960720e+02 1.924880e+02
2.083600e+02 2.308880e+02 2.488080e+02 2.513680e+02
2.160400e+02 1.371920e+02 2.472720e+02 1.924880e+02
1.479440e+02 1.699600e+02 1.940240e+02 1.914640e+02
1.218320e+02 8.855200e+01 1.535760e+02 1.197840e+02
1.584800e+01 2.506400e+01 3.940000e+01 5.885600e+01
2.114320e+02 1.914640e+02 2.375440e+02 2.119440e+02
3.632800e+01 7.370400e+01 1.714960e+02 1.167120e+02
1.213200e+02 1 1.418000e+02 6.295200e+01
1.072800e+01 4.144800e+01 3.274400e+01 8.138400e+01
1.755920e+02 1 2.088720e+02 5.322400e+01
3.560000e+00 8.957600e+01 3.428000e+01 1.243920e+02
9.469600e+01 1 1.356560e+02 5.680800e+01
8.189600e+01 8.087200e+01 1.827600e+02 1.499920e+02
9.704000e+00 2.308880e+02 1.745680e+02 2.564880e+02
1.213200e+02 1 1.407760e+02 6.295200e+01
6.632000e+00 1.940240e+02 6.602400e+01 2.385680e+02
1 9.572000e+01 2.608800e+01 1.202960e+02
1.482400e+01 1.802000e+02 1.284880e+02 2.324240e+02
6.807200e+01 2.608800e+01 1.392400e+02 6.653600e+01
2.196240e+02 6.858400e+01 2.467600e+02 1.162000e+02
6.397600e+01 1 1.336080e+02 5.578400e+01
6.551200e+01 2.660000e+01 1.105680e+02 6.192800e+01
9.704000e+00 2.308880e+02 8.599200e+01 2.564880e+02
1.090320e+02 8.240800e+01 1.704720e+02 1.233680e+02
2.455200e+01 2.165520e+02 5.424800e+01 2.365200e+02
1.709840e+02 2.329360e+02 2.191120e+02 2.549520e+02
1.325840e+02 8.957600e+01 1.643280e+02 1.320720e+02
1.840800e+01 1.991440e+02 7.575200e+01 2.339600e+02
2.145040e+02 1 2.564880e+02 5.476000e+01
2.404000e+01 5.322400e+01 1.776400e+02 7.933600e+01
1.124000e+01 1.172240e+02 4.247200e+01 1.371920e+02
8.906400e+01 8.650400e+01 1.305360e+02 1.141520e+02
1.494800e+02 1 2.011920e+02 8.189600e+01
5.271200e+01 1.817360e+02 1.284880e+02 2.083600e+02
1.151760e+02 1.674000e+02 1.494800e+02 2.257680e+02
1.781520e+02 1.202960e+02 2.042640e+02 1.592080e+02
9.981600e+01 8.189600e+01 2.052880e+02 1.689360e+02
3.888800e+01 7.319200e+01 1.714960e+02 1.121040e+02
1 8.957600e+01 3.530400e+01 1.284880e+02
1.674000e+02 1.202960e+02 2.052880e+02 1.668880e+02
2.170640e+02 3.560000e+00 2.564880e+02 5.476000e+01
2.155280e+02 1.259280e+02 2.482960e+02 1.515280e+02
1 1.428240e+02 1.238800e+02 1.842960e+02
1.208080e+02 1 1.423120e+02 6.704800e+01
8.804000e+01 8.650400e+01 1.402640e+02 1.177360e+02
1.402640e+02 1.720080e+02 1.894160e+02 2.247440e+02
2.078480e+02 1.919760e+02 2.477840e+02 2.390800e+02
1.482400e+01 2.078480e+02 3.837600e+01 2.324240e+02
1.755920e+02 1 2.083600e+02 5.476000e+01
9.704000e+00 1.919760e+02 1.443600e+02 2.564880e+02
2.078480e+02 2.093840e+02 2.298640e+02 2.390800e+02
1.453840e+02 1.853200e+02 1.924880e+02 2.196240e+02
1.208080e+02 1.489680e+02 1.694480e+02 1.745680e+02
1.725200e+02 8.701600e+01 2.052880e+02 1.540880e+02
2.093840e+02 1.679120e+02 2.564880e+02 2.334480e+02
8.804000e+01 8.650400e+01 1.325840e+02 1.167120e+02
2.186000e+02 7.656000e+00 2.564880e+02 8.189600e+01
1.571600e+02 1.627920e+02 2.032400e+02 2.308880e+02
2.073360e+02 2.093840e+02 2.467600e+02 2.314000e+02
2.083600e+02 2.134800e+02 2.436880e+02 2.472720e+02
1.668880e+02 1 2.088720e+02 5.476000e+01
4.298400e+01 7.728800e+01 1.208080e+02 1.100560e+02
9.264800e+01 1.551120e+02 1.202960e+02 1.771280e+02
1.162000e+02 1.894160e+02 1.474320e+02 2.257680e+02
1 1.100560e+02 5.015200e+01 1.371920e+02
1.802000e+02 7.984800e+01 2.022160e+02 1.085200e+02
2.119440e+02 2.404000e+01 2.503440e+02 1.412880e+02
1.617680e+02 2.288400e+02 1.965840e+02 2.498320e+02
4.042400e+01 5.424800e+01 6.653600e+01 7.370400e+01
1.208080e+02 1.674000e+02 1.684240e+02 2.247440e+02
8.855200e+01 6.632000e+00 1.274640e+02 4.042400e+01
1.755920e+02 1 2.088720e+02 5.476000e+01
2.104080e+02 1.259280e+02 2.503440e+02 2.083600e+02
1.208080e+02 8.906400e+01 1.520400e+02 1.172240e+02
8.168000e+00 1 5.066400e+01 8.138400e+01
1.827600e+02 5.117600e+01 2.027280e+02 8.189600e+01
1.448720e+02 1.622800e+02 2.037520e+02 2.314000e+02
1.584800e+01 1 3.684000e+01 5.527200e+01
1.069840e+02 2.139920e+02 1.935120e+02 2.349840e+02
2.134800e+02 1.679120e+02 2.564880e+02 2.482960e+02
6.120000e+00 2.073360e+02 3.120800e+01 2.564880e+02
7.656000e+00 1.540880e+02 1.336080e+02 2.226960e+02
1.448720e+02 8.189600e+01 1.827600e+02 1.540880e+02
1.110800e+02 8.496800e+01 1.561360e+02 1.213200e+02
1.755920e+02 1 2.042640e+02 5.322400e+01
6.448800e+01 8.680000e+00 8.906400e+01 4.861600e+01
1.438480e+02 1.592080e+02 2.032400e+02 2.380560e+02
2.145040e+02 1.371920e+02 2.421520e+02 1.924880e+02
1.392400e+02 1.679120e+02 1.586960e+02 1.873680e+02
5.220000e+01 1 7.882400e+01 6.807200e+01
1 1.156880e+02 4.759200e+01 1.371920e+02
9.111200e+01 1.551120e+02 129 1.863440e+02
6.602400e+01 1.817360e+02 1.284880e+02 2.083600e+02
3.837600e+01 2.063120e+02 1.080080e+02 2.283280e+02
8.804000e+01 8.394400e+01 1.658640e+02 1.284880e+02
1.192720e+02 1.243920e+02 1.617680e+02 1.551120e+02
7.882400e+01 1.233680e+02 1.325840e+02 1.469200e+02
1.755920e+02 1 2.088720e+02 4.042400e+01
9.981600e+01 1.243920e+02 1.617680e+02 1.556240e+02
1.208080e+02 1.674000e+02 1.494800e+02 1.945360e+02
2.096800e+01 5.424800e+01 1.771280e+02 1.085200e+02
9.111200e+01 1.592080e+02 1.438480e+02 1.863440e+02
1.761040e+02 1 2.093840e+02 6.858400e+01
4.584000e+00 7.421600e+01 2.660000e+01 9.674400e+01
5.015200e+01 8.343200e+01 8.548000e+01 1.110800e+02
9.213600e+01 1 1.356560e+02 5.424800e+01
1.156880e+02 8.855200e+01 1.351440e+02 1.172240e+02
2.098960e+02 2.058000e+02 2.503440e+02 2.329360e+02
6.551200e+01 1 1.346320e+02 5.988000e+01
2.078480e+02 2.093840e+02 2.457360e+02 2.308880e+02
1.617680e+02 2.329360e+02 2.191120e+02 2.564880e+02
4.349600e+01 8.343200e+01 7.216800e+01 1.105680e+02
2.165520e+02 129 2.488080e+02 1.919760e+02
4.554400e+01 9.623200e+01 1.325840e+02 1.167120e+02
1.443600e+02 2.155280e+02 1.919760e+02 2.534160e+02
4.400800e+01 8.087200e+01 6.653600e+01 1.100560e+02
1 1.126160e+02 4.964000e+01 1.371920e+02
2.119440e+02 1 2.564880e+02 1.505040e+02
3.560000e+00 9.776800e+01 2.404000e+01 1.223440e+02
1.034000e+02 2.052880e+02 1.428240e+02 2.344720e+02
2.096800e+01 5.424800e+01 8.036000e+01 7.626400e+01
3.940000e+01 1.530640e+02 1.202960e+02 1.771280e+02
1 8.957600e+01 3.428000e+01 1.284880e+02
2.145040e+02 6.858400e+01 2.467600e+02 1.238800e+02
2.196240e+02 2.199200e+01 2.467600e+02 1.162000e+02
5.271200e+01 1.817360e+02 1.428240e+02 2.083600e+02
1 8.957600e+01 3.479200e+01 1.284880e+02
4.503200e+01 8.036000e+01 8.548000e+01 1.110800e+02
1.781520e+02 1.213200e+02 2.052880e+02 1.668880e+02
1.612560e+02 2.365200e+02 2.411280e+02 2.564880e+02
1.226400e+01 1.981200e+02 4.144800e+01 2.339600e+02
2.096800e+01 5.424800e+01 9.060000e+01 7.626400e+01
2.104080e+02 1.274640e+02 2.498320e+02 2.114320e+02
9.008800e+01 1.218320e+02 1.612560e+02 1.709840e+02
1.402640e+02 1.904400e+02 1.684240e+02 2.247440e+02
1.725200e+02 8.701600e+01 2.006800e+02 1.295120e+02
2.096800e+01 5.424800e+01 1.766160e+02 1.085200e+02
6.807200e+01 9.623200e+01 1.325840e+02 1.167120e+02
1 1.100560e+02 5.373600e+01 1.412880e+02
1.072800e+01 2.096800e+01 4.452000e+01 8.138400e+01
1.039120e+02 8.548000e+01 1.561360e+02 1.192720e+02
2.083600e+02 1.510160e+02 2.564880e+02 2.564880e+02
1.277600e+01 8.292000e+01 3.274400e+01 1.069840e+02
1.458960e+02 1.674000e+02 1.960720e+02 1.970960e+02
1.689360e+02 1.940240e+02 193 2.186000e+02
7.626400e+01 1.226400e+01 1.080080e+02 3.888800e+01
1.044240e+02 8.752800e+01 1.346320e+02 1.172240e+02
2.078480e+02 2.042640e+02 2.457360e+02 2.390800e+02
2.155280e+02 1.259280e+02 2.482960e+02 1.924880e+02
4.349600e+01 8.343200e+01 6.602400e+01 1.105680e+02
2.160400e+02 1.371920e+02 2.421520e+02 1.924880e+02
2.252560e+02 4.042400e+01 2.493200e+02 8.138400e+01
9.367200e+01 1.612560e+02 1.586960e+02 2.083600e+02
9.316000e+01 1.371920e+02 1.914640e+02 1.771280e+02
1 1 2.404000e+01 1.223440e+02
4.810400e+01 1.115920e+02 9.725600e+01 1.377040e+02
1.412880e+02 1.627920e+02 2.032400e+02 2.319120e+02
129 8.906400e+01 1.546000e+02 1.213200e+02
4.554400e+01 8.189600e+01 7.933600e+01 1.085200e+02
1.889040e+02 1 2.088720e+02 4.042400e+01
1.602320e+02 2.298640e+02 1.883920e+02 2.534160e+02
1.612560e+02 2.155280e+02 1.919760e+02 2.354960e+02
5.220000e+01 1 7.319200e+01 6.807200e+01
9.704000e+00 2.032400e+02 1.423120e+02 2.564880e+02
1.725200e+02 1.044240e+02 2.006800e+02 1.295120e+02
2.098960e+02 2.078480e+02 2.467600e+02 2.288400e+02
2.073360e+02 2.093840e+02 2.467600e+02 2.477840e+02
2.165520e+02 1.366800e+02 2.426640e+02 1.776400e+02
8.906400e+01 8.394400e+01 1.561360e+02 1.172240e+02
9.316000e+01 1.551120e+02 1.202960e+02 1.771280e+02
1.100560e+02 2.711200e+01 1.336080e+02 5.424800e+01
1.141520e+02 8.036000e+01 2.052880e+02 1.668880e+02
65 1.755920e+02 1.423120e+02 2.329360e+02
2.155280e+02 1.919760e+02 2.457360e+02 2.216720e+02
2.506400e+01 1.612560e+02 1.013520e+02 2.073360e+02
1.412880e+02 2.017040e+02 1.837840e+02 2.319120e+02
7.144000e+00 2.073360e+02 3.120800e+01 2.375440e+02
1.402640e+02 1.704720e+02 1.935120e+02 2.247440e+02
1 1.402640e+02 1.397520e+02 1.771280e+02
1 1.172240e+02 4.247200e+01 1.371920e+02
4.810400e+01 1.115920e+02 1.494800e+02 1.361680e+02
6.448800e+01 4.810400e+01 1.202960e+02 7.063200e+01
65 1.755920e+02 1.284880e+02 1.965840e+02
2.104080e+02 1.274640e+02 2.447120e+02 2.083600e+02
1 1.044240e+02 3.530400e+01 1.300240e+02
1.423120e+02 1.919760e+02 1.684240e+02 2.247440e+02
1.072800e+01 2.096800e+01 4.400800e+01 8.138400e+01
3.632800e+01 7.370400e+01 7.216800e+01 1.136400e+02
2.119440e+02 2.404000e+01 2.544400e+02 1.505040e+02
2.506400e+01 6.909600e+01 4.503200e+01 1.085200e+02
1.124000e+01 2.011920e+02 9.316000e+01 2.411280e+02
2.145040e+02 1 2.564880e+02 8.240800e+01
9.316000e+01 1.489680e+02 1.494800e+02 1.771280e+02
9.008800e+01 8.650400e+01 1.346320e+02 1.172240e+02
2.027280e+02 1.274640e+02 2.564880e+02 2.564880e+02
1.533600e+01 2.762400e+01 4.093600e+01 5.988000e+01
1.034000e+02 2.052880e+02 1.371920e+02 2.344720e+02
1.482400e+01 2.011920e+02 7.421600e+01 2.324240e+02
7.626400e+01 1.021600e+01 1.080080e+02 3.940000e+01
1.226400e+01 1.981200e+02 3.735200e+01 2.273040e+02
1.341200e+02 8.496800e+01 1.653520e+02 1.341200e+02
2.104080e+02 1.274640e+02 2.457360e+02 2.114320e+02
1.438480e+02 1.899280e+02 1.924880e+02 2.206480e+02
1.892000e+01 1.602320e+02 9.930400e+01 1.909520e+02
2.506400e+01 1.612560e+02 9.264800e+01 1.904400e+02
7.370400e+01 1.243920e+02 1.612560e+02 1.709840e+02
4.298400e+01 7.728800e+01 1.709840e+02 1.499920e+02
1.124000e+01 2.006800e+02 1.202960e+02 2.411280e+02
2.078480e+02 1.259280e+02 2.482960e+02 2.564880e+02
1.412880e+02 2.017040e+02 1.817360e+02 2.252560e+02
2.027280e+02 2.093840e+02 2.457360e+02 2.431760e+02
2.145040e+02 1.371920e+02 2.426640e+02 1.924880e+02
2.252560e+02 4.042400e+01 2.482960e+02 8.138400e+01
5.015200e+01 2.098960e+02 9.316000e+01 2.411280e+02
2.506400e+01 1.633040e+02 1.428240e+02 2.052880e+02
6.602400e+01 2.329360e+02 1.745680e+02 2.564880e+02
1.648400e+02 2.201360e+02 2.001680e+02 2.549520e+02
2.506400e+01 1.755920e+02 1.202960e+02 1.986320e+02
2.119440e+02 1 2.503440e+02 1.412880e+02
4.605600e+01 8.138400e+01 1.448720e+02 1.126160e+02
4.554400e+01 8.343200e+01 6.551200e+01 1.069840e+02
9.704000e+00 2.037520e+02 1.423120e+02 2.564880e+02
7.626400e+01 1.226400e+01 1.080080e+02 3.940000e+01
1.371920e+02 1.679120e+02 1.586960e+02 1.986320e+02
2.506400e+01 1.848080e+02 1.013520e+02 2.073360e+02
3.376800e+01 2.186000e+02 1.336080e+02 2.564880e+02
1.208080e+02 1.489680e+02 1.494800e+02 1.745680e+02
1.325840e+02 8.957600e+01 1.633040e+02 1.320720e+02
9.981600e+01 1.202960e+02 2.052880e+02 1.689360e+02
2.083600e+02 2.134800e+02 2.319120e+02 2.329360e+02
1.034000e+02 1.175200e+01 1.249040e+02 4.042400e+01
2.134800e+02 1.919760e+02 2.457360e+02 2.283280e+02
2.083600e+02 1.305360e+02 2.564880e+02 2.564880e+02
1.124000e+01 2.011920e+02 7.421600e+01 2.365200e+02
2.506400e+01 1.755920e+02 1.202960e+02 2.011920e+02
7.370400e+01 1.397520e+02 1.284880e+02 1.617680e+02
5.096000e+00 1.592080e+02 3.837600e+01 2.211600e+02
2.119440e+02 4.093600e+01 2.539280e+02 1.433360e+02
2.170640e+02 1.295120e+02 2.426640e+02 1.515280e+02
2.506400e+01 1.755920e+02 1.202960e+02 2.052880e+02
5.015200e+01 2.186000e+02 9.316000e+01 2.411280e+02
2.175760e+02 3.560000e+00 2.564880e+02 3.069600e+01
1.202960e+02 1.489680e+02 1.965840e+02 1.945360e+02
1.448720e+02 8.394400e+01 1.653520e+02 1.320720e+02
8.087200e+01 8.394400e+01 1.325840e+02 1.100560e+02
4.042400e+01 5.424800e+01 8.036000e+01 7.626400e+01
2.083600e+02 2.334480e+02 2.416400e+02 2.564880e+02
3.632800e+01 7.370400e+01 1.325840e+02 1.141520e+02
3.837600e+01 7.677600e+01 7.216800e+01 1.136400e+02
2.145040e+02 1.274640e+02 2.426640e+02 1.924880e+02
1.325840e+02 8.957600e+01 1.668880e+02 1.499920e+02
2.119440e+02 1 2.319120e+02 1.141520e+02
2.170640e+02 1 2.564880e+02 8.240800e+01
4.584000e+00 7.421600e+01 2.660000e+01 9.828000e+01
5.015200e+01 8.343200e+01 7.216800e+01 1.090320e+02
1 1.402640e+02 1.397520e+02 1.750800e+02
6.632000e+00 2.098960e+02 9.316000e+01 2.564880e+02
2.073360e+02 2.104080e+02 2.467600e+02 2.324240e+02
1.124000e+01 2.078480e+02 5.424800e+01 2.365200e+02
6.704800e+01 8.394400e+01 1.325840e+02 1.141520e+02
1.612560e+02 2.365200e+02 2.001680e+02 2.564880e+02
1.453840e+02 1.853200e+02 1.924880e+02 2.237200e+02
7.728800e+01 3.018400e+01 1.044240e+02 5.476000e+01
1.269520e+02 1.904400e+02 1.474320e+02 2.257680e+02
1.791760e+02 1.277600e+01 2.042640e+02 5.322400e+01
1.453840e+02 1.853200e+02 1.684240e+02 2.052880e+02
8.599200e+01 2.047760e+02 1.407760e+02 2.329360e+02
2.196240e+02 6.858400e+01 2.493200e+02 1.162000e+02
4.072000e+00 2.058000e+02 1.105680e+02 2.564880e+02
6.632000e+00 2.237200e+02 2.916000e+01 2.564880e+02
8.906400e+01 8.650400e+01 1.131280e+02 1.141520e+02
1.482400e+01 8.957600e+01 3.428000e+01 1.243920e+02
1.479440e+02 193 1.924880e+02 2.196240e+02
2.201360e+02 6.858400e+01 2.467600e+02 1.162000e+02
8.680000e+00 1.443600e+02 1.064720e+02 1.750800e+02
4.584000e+00 9.776800e+01 2.404000e+01 1.223440e+02
1.479440e+02 193 1.904400e+02 2.196240e+02
2.506400e+01 1.848080e+02 7.114400e+01 2.052880e+02
5.096000e+00 1.643280e+02 3.376800e+01 2.211600e+02
1.674000e+02 1.284880e+02 1.945360e+02 1.592080e+02
1.464080e+02 1.674000e+02 1.965840e+02 193
1.110800e+02 8.496800e+01 1.561360e+02 1.192720e+02
1 1.013520e+02 2.199200e+01 1.238800e+02
1.124000e+01 2.078480e+02 3.172000e+01 2.293520e+02
129 8.906400e+01 1.520400e+02 1.172240e+02
1.740560e+02 1.202960e+02 2.047760e+02 1.561360e+02
2.150160e+02 1.919760e+02 2.447120e+02 2.124560e+02
4.810400e+01 1.115920e+02 1.325840e+02 1.361680e+02
7.268000e+01 8.087200e+01 1.709840e+02 1.499920e+02
5.220000e+01 1.868560e+02 1.013520e+02 2.073360e+02
1.023760e+02 7.656000e+00 1.356560e+02 5.424800e+01
2.557600e+01 1.115920e+02 1.325840e+02 1.366800e+02
4.605600e+01 8.138400e+01 1.325840e+02 1.100560e+02
8.036000e+01 8.650400e+01 1.039120e+02 1.110800e+02
4.072000e+00 2.098960e+02 9.316000e+01 2.564880e+02
2.170640e+02 2.221840e+02 2.467600e+02 2.482960e+02
1.325840e+02 8.957600e+01 1.633040e+02 1.310480e+02
8.680000e+00 1.402640e+02 1.397520e+02 1.750800e+02
6.448800e+01 4.810400e+01 9.725600e+01 7.012000e+01
1.397520e+02 1.986320e+02 1.837840e+02 2.293520e+02
2.155280e+02 1.259280e+02 2.503440e+02 1.546000e+02
1.840800e+01 2.011920e+02 7.421600e+01 2.237200e+02
1.499920e+02 1.328800e+01 1.699600e+02 6.807200e+01
3.786400e+01 2.006800e+02 1.064720e+02 2.242320e+02
1.105680e+02 8.906400e+01 1.305360e+02 1.141520e+02
2.170640e+02 5.608000e+00 2.436880e+02 5.476000e+01
1.162000e+02 8.906400e+01 1.520400e+02 1.172240e+02
8.680000e+00 1.443600e+02 1.208080e+02 1.750800e+02
1 1.013520e+02 2.250400e+01 1.284880e+02
2.083600e+02 1.679120e+02 2.564880e+02 2.482960e+02
1.069840e+02 8.804000e+01 1.264400e+02 1.141520e+02
1.761040e+02 1.044240e+02 2.006800e+02 1.243920e+02
4.810400e+01 1.115920e+02 9.776800e+01 1.351440e+02
